{
      "properties": {
            "coord_syst": {
                  "type": "number"
            },
            "survey_id": {
                  "type": "number"
            },
            "survey_nam": {
                  "type": "string"
            },
            "area": {
                  "type": "string"
            },
            "operator": {
                  "type": "string"
            },
            "svy_dimen": {
                  "type": "string"
            },
            "npd_svy_id": {
                  "type": "number"
            },
            "p_linename": {
                  "type": "string"
            },
            "parent_l_t": {
                  "type": "string"
            },
            "acqtn_year": {
                  "type": "number"
            },
            "pii_id": {
                  "type": "number"
            },
            "dataset": {
                  "type": "string"
            },
            "pii_g_type": {
                  "type": "string"
            },
            "pii_i_type": {
                  "type": "string"
            },
            "custodian": {
                  "type": "string"
            },
            "rel_flag": {
                  "type": "string"
            },
            "link": {
                  "type": "string"
            },
            "total_num": {
                  "type": "number"
            },
            "pub_date": {
                  "pattern": "^[0-9]{4}-[0-9]{2}-[0-9]{2} [0-9]{2}:[0-9]{2}:[0-9]{2}.[0-9]{1}$",
                  "type": "string"
            },
            "map_id": {
                  "type": "number"
            },
            "date_kgdb_load": {
                  "pattern": "^[0-9]{4}-[0-9]{2}-[0-9]{2}T[0-9]{2}:[0-9]{2}:[0-9]{2}",
                  "type": "string"
            }
      },
      "type": "object",
      "additionalProperties": false,
      "description": "NPD Diskos 3D Survey schema",
      "datatype": [
            "Geophysics",
            "Seismic",
            "3D Seismic"
      ],
      "$schema": "http://json-schema.org/draft-07/schema#"
}