[
  {
    "projected_geometry": {
      "coordinates": [
        102.0,
        0.5
      ],
      "type": "Point"
    },
    "result": {
      "File": "d:"
    },
    "distribution_info": {
      "Metadata": "One"
    },
    "description": "Test #1",
    "datatype": "https://schemas.geodatahub.dk/empty.json",
    "organization": "76474f4e-b2d2-4bdf-8f26-4e5224f00b47",
      "owner": "76474f4e-b2d2-4bdf-8f26-4e5224f00b47",
      "publicize": true
  },
  {
    "projected_geometry": {
      "coordinates": [
        8.0,
        55.5
      ],
      "type": "Point"
    },
    "result": {
      "File": "d:"
    },
    "distribution_info": {
      "parameter1": "One",
      "parameter2": 42
    },
    "description": "Test #2",
    "datatype": "https://schemas.geodatahub.dk/test.json",
    "organization": "76474f4e-b2d2-4bdf-8f26-4e5224f00b47",
    "owner": "76474f4e-b2d2-4bdf-8f26-4e5224f00b47"
  },
  {
    "projected_geometry": {
      "coordinates": [
        8.0,
        55.5
      ],
      "type": "Point"
    },
    "result": {
      "File": "d:"
    },
    "distribution_info": {
      "name": "FirstTestWell",
      "depth": 10,
      "pressure": 1000
    },
    "description": "Test #3",
    "datatype": "https://schemas.geodatahub.dk/test.json",
    "organization": "76474f4e-b2d2-4bdf-8f26-4e5224f00b47",
    "owner": "76474f4e-b2d2-4bdf-8f26-4e5224f00b47"
  },
  {
    "projected_geometry": {
      "coordinates": [
        8.0,
        55.5
      ],
      "type": "Point"
    },
    "result": {
      "File": "d:"
    },
    "distribution_info": {
      "name": "SecondTestWell",
      "depth": 20,
      "pressure": 2000
    },
    "description": "Test #4",
    "datatype": "https://schemas.geodatahub.dk/test.json",
    "organization": "76474f4e-b2d2-4bdf-8f26-4e5224f00b47",
    "owner": "76474f4e-b2d2-4bdf-8f26-4e5224f00b47"
  },
  {
    "projected_geometry": {
      "coordinates": [
        102.0,
        0.5
      ],
      "type": "Point"
    },
    "result": {
      "File": "d:"
    },
    "distribution_info": {
      "Metadata": "One"
    },
    "description": "Test #5",
    "datatype": "https://schemas.geodatahub.dk/empty.json",
    "organization": "76474f4e-b2d2-4bdf-8f26-4e5224f00b47",
    "owner": "76474f4e-b2d2-4bdf-8f26-4e5224f00b47"
  },
  {
    "projected_geometry": {
      "type": "GeometryCollection",
      "geometries": [
        {
          "type": "Point",
          "coordinates": [
            66.0136755,
            -75.178604
          ]
        }
      ]
    },
    "result": {
      "File": "d:"
    },
    "distribution_info": {
      "One": "Two",
      "Metadata": "One"
    },
    "description": "Test #6: Dataset with GeometryCollection as projectedGeometry",
    "datatype": "https://schemas.geodatahub.dk/empty.json",
    "organization": "76474f4e-b2d2-4bdf-8f26-4e5224f00b47",
    "owner": "49be1a79-0aaf-440c-a42c-fc2ba56a3e34"
  },
  {
    "projected_geometry": {
      "type": "GeometryCollection",
      "geometries": [
        {
          "type": "Point",
          "coordinates": [
            13.44158333,
            144.7900278
          ]
        }
      ]
    },
    "result": {
      "File": "https://webapps.usgs.gov/GeoLogLocator/#!/search"
    },
    "distribution_info": {
      "SiteNumber": 132626144471771,
      "StationName": "EX-4 Mangilao, Guam",
      "StateCountyID": "66XXX",
      "StateCounty": {
        "CountyName": "Guam",
        "StateName": "Guam"
      },
      "Logs": [
        {
          "LogID": 20829,
          "LogFormat": "Other",
          "DepthStartFt": 5.03,
          "DepthEndFt": -239.61,
          "LogDate": "2018-07-20T00:00:00-05:00",
          "Category": {
            "CategoryType": "Fluid Conductivity",
            "Category": "Fluid"
          }
        },
        {
          "LogID": 19528,
          "LogFormat": "Other",
          "DepthStartFt": 4.92,
          "DepthEndFt": -239.25,
          "LogDate": "01",
          "Category": {
            "CategoryType": "Fluid Conductivity",
            "Category": "Fluid"
          }
        },
        {
          "LogID": 19529,
          "LogFormat": "Other",
          "DepthStartFt": 5.09,
          "DepthEndFt": -239.44,
          "LogDate": "2017-07-29T00:00:00-05:00",
          "Category": {
            "CategoryType": "Fluid Conductivity",
            "Category": "Fluid"
          }
        },
        {
          "LogID": 19530,
          "LogFormat": "Other",
          "DepthStartFt": 5.44,
          "DepthEndFt": -239.54,
          "LogDate": "2017-01-21T00:00:00-06:00",
          "Category": {
            "CategoryType": "Fluid Conductivity",
            "Category": "Fluid"
          }
        },
        {
          "LogID": 20080,
          "LogFormat": "Other",
          "DepthStartFt": -36.28,
          "DepthEndFt": -240.0,
          "LogDate": "2011-10-12T00:00:00-05:00",
          "Category": {
            "CategoryType": "Fluid Conductivity",
            "Category": "Fluid"
          }
        },
        {
          "LogID": 17506,
          "LogFormat": "Other",
          "DepthStartFt": 6.27,
          "DepthEndFt": -239.57,
          "LogDate": "2015-07-13T00:00:00-05:00",
          "Category": {
            "CategoryType": "Fluid Conductivity",
            "Category": "Fluid"
          }
        },
        {
          "LogID": 17507,
          "LogFormat": "Other",
          "DepthStartFt": 4.77,
          "DepthEndFt": -239.4,
          "LogDate": "2016-01-14T00:00:00-06:00",
          "Category": {
            "CategoryType": "Fluid Conductivity",
            "Category": "Fluid"
          }
        }
      ]
    },
    "description": "Test #7: Dataset with GeometryCollection as projectedGeometry",
    "datatype": "https://schemas.geodatahub.dk/geolog.json",
    "organization": "76474f4e-b2d2-4bdf-8f26-4e5224f00b47",
    "owner": "49be1a79-0aaf-440c-a42c-fc2ba56a3e34"
  },
  {
    "projected_geometry": {
      "coordinates": [
        6.322975158691406,
        61.120526876046746
      ],
      "type": "Point"
    },
    "result": {
      "File": "d:"
    },
    "distribution_info": {
      "location": "Sognefjord",
      "depth": 100,
      "msl": 1
    },
    "description": "Test #8: Dataset to test geometry search with other parameters - Located in sognefjord",
    "datatype": "https://schemas.geodatahub.dk/sognefjord.json",
    "organization": "76474f4e-b2d2-4bdf-8f26-4e5224f00b47",
    "owner": "76474f4e-b2d2-4bdf-8f26-4e5224f00b47"
  },
  {
    "projected_geometry": {
      "coordinates": [
        6.3315582275390625,
        61.10078883158897
      ],
      "type": "Point"
    },
    "result": {
      "File": "d:"
    },
    "distribution_info": {
      "location": "Sognefjord",
      "depth": 200,
      "msl": 2
    },
    "description": "Test #9: Dataset to test geometry search with other parameters - Located in sognefjord",
    "datatype": "https://schemas.geodatahub.dk/sognefjord.json",
    "organization": "76474f4e-b2d2-4bdf-8f26-4e5224f00b47",
    "owner": "76474f4e-b2d2-4bdf-8f26-4e5224f00b47"
  },
  {
    "projected_geometry": {
      "coordinates": [
        6.425628662109375,
        61.10045699444697
      ],
      "type": "Point"
    },
    "result": {
      "File": "d:"
    },
    "distribution_info": {
      "location": "Sognefjord",
      "depth": 300,
      "msl": 3,
      "within": true
    },
    "description": "Test #10: Dataset to test geometry search with other parameters - Located in sognefjord",
    "datatype": "https://schemas.geodatahub.dk/type1.json",
    "organization": "76474f4e-b2d2-4bdf-8f26-4e5224f00b47",
    "owner": "76474f4e-b2d2-4bdf-8f26-4e5224f00b47"
  },
  {
    "projected_geometry": {
      "coordinates": [
        [
          6.3755035400390625,
          61.10709307581831
        ],
        [
          6.467170715332031,
          61.10842012499412
        ],
        [
          6.411552429199219,
          61.08369469085848
        ],
        [
          6.4057159423828125,
          61.09630873640474
        ]
      ],
      "type": "LineString"
    },
    "result": {
      "File": "d:"
    },
    "distribution_info": {
        "location": "Sognefjord",
        "type": "line"
    },
    "description": "Test #11: Dataset to test geometry search with other parameters - Located in sognefjord",
    "datatype": "https://schemas.geodatahub.dk/type2.json",
    "organization": "76474f4e-b2d2-4bdf-8f26-4e5224f00b47",
    "owner": "76474f4e-b2d2-4bdf-8f26-4e5224f00b47"
  },
  {
    "projected_geometry": {
      "coordinates": [
        [
          [
            6.297569274902344,
            61.07207204167574
          ],
          [
            6.4853668212890625,
            61.07207204167574
          ],
          [
            6.4853668212890625,
            61.1309714408683
          ],
          [
            6.297569274902344,
            61.1309714408683
          ],
          [
            6.297569274902344,
            61.07207204167574
          ]
        ]
      ],
      "type": "Polygon"
    },
    "result": {
      "File": "d:"
    },
    "distribution_info": {
        "location": "Sognefjord",
        "type": "poly"
    },
    "description": "Test #12: Dataset to test geometry search with other parameters - Located in sognefjord",
    "datatype": "https://schemas.geodatahub.dk/type2.json",
    "organization": "76474f4e-b2d2-4bdf-8f26-4e5224f00b47",
    "owner": "76474f4e-b2d2-4bdf-8f26-4e5224f00b47"
  },
  {
    "projected_geometry": {
      "coordinates": [
        [
          [
            6.297569274902344,
            61.07207204167574
          ],
          [
            6.4853668212890625,
            61.07207204167574
          ],
          [
            6.4853668212890625,
            61.1309714408683
          ],
          [
            6.297569274902344,
            61.1309714408683
          ],
          [
            6.297569274902344,
            61.07207204167574
          ]
        ]
      ],
      "type": "Polygon"
    },
    "result": {
      "File": "d:"
    },
    "distribution_info": {
        "NPDID wellbore": 42,
        "Wellbore name": "test wellbore 42",
        "Well name": "test well 42"
    },
    "description": "Test #13: Test dataset for nested schemas and unique constraints",
    "datatype": "https://schemas.geodatahub.dk/organizations/npd/geophysics/well.json",
    "organization": "76474f4e-b2d2-4bdf-8f26-4e5224f00b47",
    "owner": "76474f4e-b2d2-4bdf-8f26-4e5224f00b47"
  }
]
